%YAML 1.1
%TAG !u! tag:unity3d.com,2011:
--- !u!114 &11400000
MonoBehaviour:
  m_ObjectHideFlags: 0
  m_CorrespondingSourceObject: {fileID: 0}
  m_PrefabInstance: {fileID: 0}
  m_PrefabAsset: {fileID: 0}
  m_GameObject: {fileID: 0}
  m_Enabled: 1
  m_EditorHideFlags: 0
  m_Script: {fileID: 11500000, guid: c9bc43e142692db4e92eef81e1903ca4, type: 3}
  m_Name: CTS_Graph
  m_EditorClassIdentifier: 
  groups:
  - name: Height
    comment: Drag in generators to group them
    color: {r: 0.9609375, g: 0.7890625, b: 0.78515625, a: 1}
    guiPos: {x: -486.85715, y: -167.85715}
    guiSize: {x: 781.1428, y: 278.2857}
  - name: Textures
    comment: Drag in generators to group them
    color: {r: 0.60546875, g: 0.58984375, b: 0.25, a: 1}
    guiPos: {x: -507.76614, y: 147.11687}
    guiSize: {x: 1298.8872, y: 369.3333}
  random:
    seed: 12345
    subSeed: 0
  guiScrollPivot: {x: 334, y: 291.5}
  changeVersion: 3439
  serializedVersion: 0
  serializer200beta:
    serializedData:
    - refId: 0
      type: MapMagic.Nodes.GraphSerializer200Beta+SerializedDataProt, MapMagic, Version=0.0.0.0,
        Culture=neutral, PublicKeyToken=null
      altType: 
      fields:
      - ver
      - generators
      - linkInlets
      - linkOutlets
      - groups
      - exposed
      values:
      - t: 255
        v: 1
      - t: 255
        v: 2
      - t: 255
        v: 76
      - t: 255
        v: 77
      - t: 255
        v: 78
      - t: 255
        v: 89
      special: 
      uniObj: {fileID: 0}
    - refId: 1
      type: Den.Tools.SemVer, Tools, Version=0.0.0.0, Culture=neutral, PublicKeyToken=null
      altType: 
      fields:
      - major
      - minor
      - prt
      - patch
      - hash
      - summary
      values:
      - t: 4
        v: 2
      - t: 4
        v: 0
      - t: 4
        v: 4
      - t: 4
        v: 0
      - t: 1
        v: 262146
      - t: 6
        v: 262146
      special: 
      uniObj: {fileID: 0}
    - refId: 2
      type: MapMagic.Nodes.Generator[], MapMagic, Version=0.0.0.0, Culture=neutral,
        PublicKeyToken=null
      altType: 
      fields: []
      values:
      - t: 255
        v: 3
      - t: 255
        v: 9
      - t: 255
        v: 13
      - t: 255
        v: 18
      - t: 255
        v: 33
      - t: 255
        v: 38
      - t: 255
        v: 41
      - t: 255
        v: 45
      - t: 255
        v: 49
      - t: 255
        v: 53
      - t: 255
        v: 63
      - t: 255
        v: 67
      special: 
      uniObj: {fileID: 0}
    - refId: 3
      type: MapMagic.Nodes.MatrixGenerators.Noise200, MapMagic, Version=0.0.0.0,
        Culture=neutral, PublicKeyToken=null
      altType: MapMagic.Nodes.Placeholders+InletOutletPlaceholder, MapMagic, Version=0.0.0.0,
        Culture=neutral, PublicKeyToken=null
      fields:
      - type
      - seed
      - intensity
      - size
      - detail
      - turbulence
      - offset
      - enabled
      - guid
      - draftTime
      - mainTime
      - guiPosition
      - guiSize
      - guiPreview
      values:
      - t: 255
        v: 4
      - t: 1
        v: 12345
      - t: 2
        v: 1065353216
      - t: 2
        v: 1125515264
      - t: 2
        v: 1051595899
      - t: 2
        v: 0
      - t: 255
        v: 5
      - t: 3
        v: 1
      - t: 255
        v: 6
      - t: 9
        v: 4611036599361121078
      - t: 9
        v: 4634350320220260165
      - t: 255
        v: 7
      - t: 255
        v: 8
      - t: 3
        v: 0
      special: 
      uniObj: {fileID: 0}
    - refId: 4
      type: MapMagic.Nodes.MatrixGenerators.Noise200+Type, MapMagic, Version=0.0.0.0,
        Culture=neutral, PublicKeyToken=null
      altType: 
      fields:
      - value__
      values:
      - t: 1
        v: 2
      special: 
      uniObj: {fileID: 0}
    - refId: 5
      type: Den.Tools.Vector2D, Tools, Version=0.0.0.0, Culture=neutral, PublicKeyToken=null
      altType: 
      fields:
      - x
      - z
      values:
      - t: 2
        v: 0
      - t: 2
        v: 0
      special: 
      uniObj: {fileID: 0}
    - refId: 6
      type: System.Guid, mscorlib, Version=4.0.0.0, Culture=neutral, PublicKeyToken=b77a5c561934e089
      altType: 
      fields: []
      values: []
      special: 7d09c619-79b8-41e7-a62b-63ec65b6475c
      uniObj: {fileID: 0}
    - refId: 7
      type: UnityEngine.Vector2, UnityEngine.CoreModule, Version=0.0.0.0, Culture=neutral,
        PublicKeyToken=null
      altType: 
      fields:
      - x
      - y
      values:
      - t: 2
        v: 3286536778
      - t: 2
        v: 3268430116
      special: 
      uniObj: {fileID: 0}
    - refId: 8
      type: UnityEngine.Vector2, UnityEngine.CoreModule, Version=0.0.0.0, Culture=neutral,
        PublicKeyToken=null
      altType: 
      fields:
      - x
      - y
      values:
      - t: 2
        v: 1124204544
      - t: 2
        v: 1128398848
      special: 
      uniObj: {fileID: 0}
    - refId: 9
      type: MapMagic.Nodes.MatrixGenerators.Erosion200, MapMagic, Version=0.0.0.0,
        Culture=neutral, PublicKeyToken=null
      altType: MapMagic.Nodes.Placeholders+InletOutletPlaceholder, MapMagic, Version=0.0.0.0,
        Culture=neutral, PublicKeyToken=null
      fields:
      - iterations
      - terrainDurability
      - erosionAmount
      - sedimentAmount
      - fluidityIterations
      - enabled
      - guid
      - draftTime
      - mainTime
      - guiPosition
      - guiSize
      - guiPreview
      values:
      - t: 1
        v: 3
      - t: 2
        v: 1063675494
      - t: 2
        v: 1065353216
      - t: 2
        v: 1061158912
      - t: 1
        v: 3
      - t: 3
        v: 1
      - t: 255
        v: 10
      - t: 9
        v: 4608101153124000989
      - t: 9
        v: 4643446966944943990
      - t: 255
        v: 11
      - t: 255
        v: 12
      - t: 3
        v: 0
      special: 
      uniObj: {fileID: 0}
    - refId: 10
      type: System.Guid, mscorlib, Version=4.0.0.0, Culture=neutral, PublicKeyToken=b77a5c561934e089
      altType: 
      fields: []
      values: []
      special: 28cd68d9-2ffe-458a-9681-51f91d84fc80
      uniObj: {fileID: 0}
    - refId: 11
      type: UnityEngine.Vector2, UnityEngine.CoreModule, Version=0.0.0.0, Culture=neutral,
        PublicKeyToken=null
      altType: 
      fields:
      - x
      - y
      values:
      - t: 2
        v: 3260846668
      - t: 2
        v: 3268167972
      special: 
      uniObj: {fileID: 0}
    - refId: 12
      type: UnityEngine.Vector2, UnityEngine.CoreModule, Version=0.0.0.0, Culture=neutral,
        PublicKeyToken=null
      altType: 
      fields:
      - x
      - y
      values:
      - t: 2
        v: 1124204544
      - t: 2
        v: 1122238464
      special: 
      uniObj: {fileID: 0}
    - refId: 13
      type: MapMagic.Nodes.MatrixGenerators.HeightOutput200, MapMagic, Version=0.0.0.0,
        Culture=neutral, PublicKeyToken=null
      altType: MapMagic.Nodes.Placeholders+InletOutletPlaceholder, MapMagic, Version=0.0.0.0,
        Culture=neutral, PublicKeyToken=null
      fields:
      - outputLevel
      - guiApplyType
      - enabled
      - guid
      - draftTime
      - mainTime
      - guiPosition
      - guiSize
      - guiPreview
      values:
      - t: 255
        v: 14
      - t: 3
        v: 0
      - t: 3
        v: 1
      - t: 255
        v: 15
      - t: 9
        v: 4577091167529778702
      - t: 9
        v: 4577091167529778702
      - t: 255
        v: 16
      - t: 255
        v: 17
      - t: 3
        v: 0
      special: 
      uniObj: {fileID: 0}
    - refId: 14
      type: MapMagic.Nodes.OutputLevel, MapMagic, Version=0.0.0.0, Culture=neutral,
        PublicKeyToken=null
      altType: 
      fields:
      - value__
      values:
      - t: 1
        v: 3
      special: 
      uniObj: {fileID: 0}
    - refId: 15
      type: System.Guid, mscorlib, Version=4.0.0.0, Culture=neutral, PublicKeyToken=b77a5c561934e089
      altType: 
      fields: []
      values: []
      special: b02c4e26-ea2b-47e6-b629-bd062292a14b
      uniObj: {fileID: 0}
    - refId: 16
      type: UnityEngine.Vector2, UnityEngine.CoreModule, Version=0.0.0.0, Culture=neutral,
        PublicKeyToken=null
      altType: 
      fields:
      - x
      - y
      values:
      - t: 2
        v: 1124527183
      - t: 2
        v: 3272530078
      special: 
      uniObj: {fileID: 0}
    - refId: 17
      type: UnityEngine.Vector2, UnityEngine.CoreModule, Version=0.0.0.0, Culture=neutral,
        PublicKeyToken=null
      altType: 
      fields:
      - x
      - y
      values:
      - t: 2
        v: 1124204544
      - t: 2
        v: 1111490560
      special: 
      uniObj: {fileID: 0}
    - refId: 18
      type: MapMagic.Nodes.MatrixGenerators.Curve200, MapMagic, Version=0.0.0.0,
        Culture=neutral, PublicKeyToken=null
      altType: MapMagic.Nodes.Placeholders+InletOutletPlaceholder, MapMagic, Version=0.0.0.0,
        Culture=neutral, PublicKeyToken=null
      fields:
      - curve
      - enabled
      - guid
      - draftTime
      - mainTime
      - guiPosition
      - guiSize
      - guiPreview
      values:
      - t: 255
        v: 19
      - t: 3
        v: 1
      - t: 255
        v: 30
      - t: 9
        v: 4591805328232323586
      - t: 9
        v: 4620457229061654682
      - t: 255
        v: 31
      - t: 255
        v: 32
      - t: 3
        v: 0
      special: 
      uniObj: {fileID: 0}
    - refId: 19
      type: Den.Tools.Curve, Tools, Version=0.0.0.0, Culture=neutral, PublicKeyToken=null
      altType: 
      fields:
      - points
      - lut
      values:
      - t: 255
        v: 20
      - t: 255
        v: 29
      special: 
      uniObj: {fileID: 0}
    - refId: 20
      type: Den.Tools.Curve+Node[], Tools, Version=0.0.0.0, Culture=neutral, PublicKeyToken=null
      altType: 
      fields: []
      values:
      - t: 255
        v: 21
      - t: 255
        v: 23
      - t: 255
        v: 25
      - t: 255
        v: 27
      special: 
      uniObj: {fileID: 0}
    - refId: 21
      type: Den.Tools.Curve+Node, Tools, Version=0.0.0.0, Culture=neutral, PublicKeyToken=null
      altType: 
      fields:
      - pos
      - inTangent
      - outTangent
      - linear
      values:
      - t: 255
        v: 22
      - t: 2
        v: 0
      - t: 2
        v: 3176391802
      - t: 3
        v: 1
      special: 
      uniObj: {fileID: 0}
    - refId: 22
      type: UnityEngine.Vector2, UnityEngine.CoreModule, Version=0.0.0.0, Culture=neutral,
        PublicKeyToken=null
      altType: 
      fields:
      - x
      - y
      values:
      - t: 2
        v: 0
      - t: 2
        v: 0
      special: 
      uniObj: {fileID: 0}
    - refId: 23
      type: Den.Tools.Curve+Node, Tools, Version=0.0.0.0, Culture=neutral, PublicKeyToken=null
      altType: 
      fields:
      - pos
      - inTangent
      - outTangent
      - linear
      values:
      - t: 255
        v: 24
      - t: 2
        v: 1059123075
      - t: 2
        v: 1059123075
      - t: 3
        v: 0
      special: 
      uniObj: {fileID: 0}
    - refId: 24
      type: UnityEngine.Vector2, UnityEngine.CoreModule, Version=0.0.0.0, Culture=neutral,
        PublicKeyToken=null
      altType: 
      fields:
      - x
      - y
      values:
      - t: 2
        v: 1054373006
      - t: 2
        v: 1039778192
      special: 
      uniObj: {fileID: 0}
    - refId: 25
      type: Den.Tools.Curve+Node, Tools, Version=0.0.0.0, Culture=neutral, PublicKeyToken=null
      altType: 
      fields:
      - pos
      - inTangent
      - outTangent
      - linear
      values:
      - t: 255
        v: 26
      - t: 2
        v: 1070986182
      - t: 2
        v: 1070986182
      - t: 3
        v: 0
      special: 
      uniObj: {fileID: 0}
    - refId: 26
      type: UnityEngine.Vector2, UnityEngine.CoreModule, Version=0.0.0.0, Culture=neutral,
        PublicKeyToken=null
      altType: 
      fields:
      - x
      - y
      values:
      - t: 2
        v: 1061689902
      - t: 2
        v: 1056243637
      special: 
      uniObj: {fileID: 0}
    - refId: 27
      type: Den.Tools.Curve+Node, Tools, Version=0.0.0.0, Culture=neutral, PublicKeyToken=null
      altType: 
      fields:
      - pos
      - inTangent
      - outTangent
      - linear
      values:
      - t: 255
        v: 28
      - t: 2
        v: 1082440697
      - t: 2
        v: 0
      - t: 3
        v: 1
      special: 
      uniObj: {fileID: 0}
    - refId: 28
      type: UnityEngine.Vector2, UnityEngine.CoreModule, Version=0.0.0.0, Culture=neutral,
        PublicKeyToken=null
      altType: 
      fields:
      - x
      - y
      values:
      - t: 2
        v: 1065353216
      - t: 2
        v: 1065353216
      special: 
      uniObj: {fileID: 0}
    - refId: 29
      type: System.Single[], mscorlib, Version=4.0.0.0, Culture=neutral, PublicKeyToken=b77a5c561934e089
      altType: 
      fields: []
      values:
      - t: 2
        v: 0
      - t: 2
        v: 3108486990
      - t: 2
        v: 3116025191
      - t: 2
        v: 3120715936
      - t: 2
        v: 3122712984
      - t: 2
        v: 3124284831
      - t: 2
        v: 3125431473
      - t: 2
        v: 3126152911
      - t: 2
        v: 3126449145
      - t: 2
        v: 3126320178
      - t: 2
        v: 3125766007
      - t: 2
        v: 3124786631
      - t: 2
        v: 3123382057
      - t: 2
        v: 3121552265
      - t: 2
        v: 3118032399
      - t: 2
        v: 3112672037
      - t: 2
        v: 3097712876
      - t: 2
        v: 956682507
      - t: 2
        v: 968597861
      - t: 2
        v: 975219175
      - t: 2
        v: 980025385
      - t: 2
        v: 983361963
      - t: 2
        v: 986190265
      - t: 2
        v: 989231185
      - t: 2
        v: 991170215
      - t: 2
        v: 992903271
      - t: 2
        v: 994742624
      - t: 2
        v: 996688280
      - t: 2
        v: 998492298
      - t: 2
        v: 999571428
      - t: 2
        v: 1000703707
      - t: 2
        v: 1001889137
      - t: 2
        v: 1003127721
      - t: 2
        v: 1004419446
      - t: 2
        v: 1005764336
      - t: 2
        v: 1006897664
      - t: 2
        v: 1007623258
      - t: 2
        v: 1008375421
      - t: 2
        v: 1009154162
      - t: 2
        v: 1009959478
      - t: 2
        v: 1010791373
      - t: 2
        v: 1011649836
      - t: 2
        v: 1012534884
      - t: 2
        v: 1013446500
      - t: 2
        v: 1014384691
      - t: 2
        v: 1015185512
      - t: 2
        v: 1015681185
      - t: 2
        v: 1016190143
      - t: 2
        v: 1016712393
      - t: 2
        v: 1017247925
      - t: 2
        v: 1017796748
      - t: 2
        v: 1018358858
      - t: 2
        v: 1018934257
      - t: 2
        v: 1019522938
      - t: 2
        v: 1020124913
      - t: 2
        v: 1020740176
      - t: 2
        v: 1021368719
      - t: 2
        v: 1022010554
      - t: 2
        v: 1022665677
      - t: 2
        v: 1023334093
      - t: 2
        v: 1023712982
      - t: 2
        v: 1024060474
      - t: 2
        v: 1024414611
      - t: 2
        v: 1024775393
      - t: 2
        v: 1025142818
      - t: 2
        v: 1025516885
      - t: 2
        v: 1025897598
      - t: 2
        v: 1026284952
      - t: 2
        v: 1026678952
      - t: 2
        v: 1027079596
      - t: 2
        v: 1027486881
      - t: 2
        v: 1027900815
      - t: 2
        v: 1028321389
      - t: 2
        v: 1028748608
      - t: 2
        v: 1029182468
      - t: 2
        v: 1029622976
      - t: 2
        v: 1030070126
      - t: 2
        v: 1030523920
      - t: 2
        v: 1030984356
      - t: 2
        v: 1031451438
      - t: 2
        v: 1031861974
      - t: 2
        v: 1032102159
      - t: 2
        v: 1032345665
      - t: 2
        v: 1032592493
      - t: 2
        v: 1032842643
      - t: 2
        v: 1033096114
      - t: 2
        v: 1033352909
      - t: 2
        v: 1033613025
      - t: 2
        v: 1033876464
      - t: 2
        v: 1034143222
      - t: 2
        v: 1034413304
      - t: 2
        v: 1034686708
      - t: 2
        v: 1034963433
      - t: 2
        v: 1035243479
      - t: 2
        v: 1035526850
      - t: 2
        v: 1035813541
      - t: 2
        v: 1036103554
      - t: 2
        v: 1036396888
      - t: 2
        v: 1036693545
      - t: 2
        v: 1036993524
      - t: 2
        v: 1037296826
      - t: 2
        v: 1037603446
      - t: 2
        v: 1037913391
      - t: 2
        v: 1038226658
      - t: 2
        v: 1038543246
      - t: 2
        v: 1038863156
      - t: 2
        v: 1039186388
      - t: 2
        v: 1039512942
      - t: 2
        v: 1039842767
      - t: 2
        v: 1040174103
      - t: 2
        v: 1040346783
      - t: 2
        v: 1040513247
      - t: 2
        v: 1040680197
      - t: 2
        v: 1040847692
      - t: 2
        v: 1041015792
      - t: 2
        v: 1041184555
      - t: 2
        v: 1041354041
      - t: 2
        v: 1041524309
      - t: 2
        v: 1041695416
      - t: 2
        v: 1041867423
      - t: 2
        v: 1042040390
      - t: 2
        v: 1042214374
      - t: 2
        v: 1042389434
      - t: 2
        v: 1042565630
      - t: 2
        v: 1042743021
      - t: 2
        v: 1042921665
      - t: 2
        v: 1043101623
      - t: 2
        v: 1043282952
      - t: 2
        v: 1043465713
      - t: 2
        v: 1043649963
      - t: 2
        v: 1043835763
      - t: 2
        v: 1044023170
      - t: 2
        v: 1044212243
      - t: 2
        v: 1044403044
      - t: 2
        v: 1044595629
      - t: 2
        v: 1044790058
      - t: 2
        v: 1044986390
      - t: 2
        v: 1045184684
      - t: 2
        v: 1045385000
      - t: 2
        v: 1045587395
      - t: 2
        v: 1045791930
      - t: 2
        v: 1045998664
      - t: 2
        v: 1046207655
      - t: 2
        v: 1046418962
      - t: 2
        v: 1046632644
      - t: 2
        v: 1046848760
      - t: 2
        v: 1047067372
      - t: 2
        v: 1047288534
      - t: 2
        v: 1047512308
      - t: 2
        v: 1047738753
      - t: 2
        v: 1047967928
      - t: 2
        v: 1048199889
      - t: 2
        v: 1048434701
      - t: 2
        v: 1048624209
      - t: 2
        v: 1048744551
      - t: 2
        v: 1048866405
      - t: 2
        v: 1048989801
      - t: 2
        v: 1049114768
      - t: 2
        v: 1049241336
      - t: 2
        v: 1049369534
      - t: 2
        v: 1049499392
      - t: 2
        v: 1049630940
      - t: 2
        v: 1049764207
      - t: 2
        v: 1049899223
      - t: 2
        v: 1050036015
      - t: 2
        v: 1050174616
      - t: 2
        v: 1050315054
      - t: 2
        v: 1050457359
      - t: 2
        v: 1050601560
      - t: 2
        v: 1050747686
      - t: 2
        v: 1050895766
      - t: 2
        v: 1051045832
      - t: 2
        v: 1051197912
      - t: 2
        v: 1051352036
      - t: 2
        v: 1051508232
      - t: 2
        v: 1051666532
      - t: 2
        v: 1051826964
      - t: 2
        v: 1051989558
      - t: 2
        v: 1052154342
      - t: 2
        v: 1052321348
      - t: 2
        v: 1052490603
      - t: 2
        v: 1052662138
      - t: 2
        v: 1052835983
      - t: 2
        v: 1053012167
      - t: 2
        v: 1053190719
      - t: 2
        v: 1053371668
      - t: 2
        v: 1053555044
      - t: 2
        v: 1053740879
      - t: 2
        v: 1053929199
      - t: 2
        v: 1054120035
      - t: 2
        v: 1054313417
      - t: 2
        v: 1054509374
      - t: 2
        v: 1054707935
      - t: 2
        v: 1054909130
      - t: 2
        v: 1055112988
      - t: 2
        v: 1055319539
      - t: 2
        v: 1055528814
      - t: 2
        v: 1055740840
      - t: 2
        v: 1055955648
      - t: 2
        v: 1056173267
      - t: 2
        v: 1056392724
      - t: 2
        v: 1056611049
      - t: 2
        v: 1056828278
      - t: 2
        v: 1057004643
      - t: 2
        v: 1057112561
      - t: 2
        v: 1057220330
      - t: 2
        v: 1057328082
      - t: 2
        v: 1057435951
      - t: 2
        v: 1057544069
      - t: 2
        v: 1057652569
      - t: 2
        v: 1057761584
      - t: 2
        v: 1057871246
      - t: 2
        v: 1057981688
      - t: 2
        v: 1058093044
      - t: 2
        v: 1058205446
      - t: 2
        v: 1058319027
      - t: 2
        v: 1058433919
      - t: 2
        v: 1058550255
      - t: 2
        v: 1058668169
      - t: 2
        v: 1058787792
      - t: 2
        v: 1058909258
      - t: 2
        v: 1059032700
      - t: 2
        v: 1059158249
      - t: 2
        v: 1059286040
      - t: 2
        v: 1059416204
      - t: 2
        v: 1059548875
      - t: 2
        v: 1059684185
      - t: 2
        v: 1059822268
      - t: 2
        v: 1059963256
      - t: 2
        v: 1060107281
      - t: 2
        v: 1060254478
      - t: 2
        v: 1060404976
      - t: 2
        v: 1060558912
      - t: 2
        v: 1060716416
      - t: 2
        v: 1060877623
      - t: 2
        v: 1061042663
      - t: 2
        v: 1061211671
      - t: 2
        v: 1061384778
      - t: 2
        v: 1061562120
      - t: 2
        v: 1061743826
      - t: 2
        v: 1061930030
      - t: 2
        v: 1062120867
      - t: 2
        v: 1062316468
      - t: 2
        v: 1062516965
      - t: 2
        v: 1062722491
      - t: 2
        v: 1062933179
      - t: 2
        v: 1063149165
      - t: 2
        v: 1063370577
      - t: 2
        v: 1063597550
      - t: 2
        v: 1063830216
      - t: 2
        v: 1064068709
      - t: 2
        v: 1064313161
      - t: 2
        v: 1064563705
      - t: 2
        v: 1064820474
      - t: 2
        v: 1065083600
      - t: 2
        v: 1065353216
      special: 
      uniObj: {fileID: 0}
    - refId: 30
      type: System.Guid, mscorlib, Version=4.0.0.0, Culture=neutral, PublicKeyToken=b77a5c561934e089
      altType: 
      fields: []
      values: []
      special: 764a11d0-ac7b-45d7-abb3-4ce5054a9cf7
      uniObj: {fileID: 0}
    - refId: 31
      type: UnityEngine.Vector2, UnityEngine.CoreModule, Version=0.0.0.0, Culture=neutral,
        PublicKeyToken=null
      altType: 
      fields:
      - x
      - y
      values:
      - t: 2
        v: 3280278090
      - t: 2
        v: 3268299044
      special: 
      uniObj: {fileID: 0}
    - refId: 32
      type: UnityEngine.Vector2, UnityEngine.CoreModule, Version=0.0.0.0, Culture=neutral,
        PublicKeyToken=null
      altType: 
      fields:
      - x
      - y
      values:
      - t: 2
        v: 1124204544
      - t: 2
        v: 1126432768
      special: 
      uniObj: {fileID: 0}
    - refId: 33
      type: MapMagic.Nodes.MatrixPortalEnter, MapMagic, Version=0.0.0.0, Culture=neutral,
        PublicKeyToken=null
      altType: MapMagic.Nodes.Placeholders+InletOutletPlaceholder, MapMagic, Version=0.0.0.0,
        Culture=neutral, PublicKeyToken=null
      fields:
      - name
      - enabled
      - guid
      - draftTime
      - mainTime
      - guiPosition
      - guiSize
      - guiPreview
      values:
      - t: 255
        v: 34
      - t: 3
        v: 1
      - t: 255
        v: 35
      - t: 9
        v: 4554169646866313825
      - t: 9
        v: 0
      - t: 255
        v: 36
      - t: 255
        v: 37
      - t: 3
        v: 0
      special: 
      uniObj: {fileID: 0}
    - refId: 34
      type: System.String, mscorlib, Version=4.0.0.0, Culture=neutral, PublicKeyToken=b77a5c561934e089
      altType: 
      fields: []
      values: []
      special: Height
      uniObj: {fileID: 0}
    - refId: 35
      type: System.Guid, mscorlib, Version=4.0.0.0, Culture=neutral, PublicKeyToken=b77a5c561934e089
      altType: 
      fields: []
      values: []
      special: c3b166fc-7bc4-446c-9f51-5c15acd0f65f
      uniObj: {fileID: 0}
    - refId: 36
      type: UnityEngine.Vector2, UnityEngine.CoreModule, Version=0.0.0.0, Culture=neutral,
        PublicKeyToken=null
      altType: 
      fields:
      - x
      - y
      values:
      - t: 2
        v: 1124694262
      - t: 2
        v: 3251547752
      special: 
      uniObj: {fileID: 0}
    - refId: 37
      type: UnityEngine.Vector2, UnityEngine.CoreModule, Version=0.0.0.0, Culture=neutral,
        PublicKeyToken=null
      altType: 
      fields:
      - x
      - y
      values:
      - t: 2
        v: 1124204544
      - t: 2
        v: 1104150528
      special: 
      uniObj: {fileID: 0}
    - refId: 38
      type: MapMagic.Nodes.MatrixPortalExit, MapMagic, Version=0.0.0.0, Culture=neutral,
        PublicKeyToken=null
      altType: MapMagic.Nodes.Placeholders+InletOutletPlaceholder, MapMagic, Version=0.0.0.0,
        Culture=neutral, PublicKeyToken=null
      fields:
      - enter
      - enabled
      - guid
      - draftTime
      - mainTime
      - guiPosition
      - guiSize
      - guiPreview
      values:
      - t: 255
        v: 33
      - t: 3
        v: 1
      - t: 255
        v: 39
      - t: 9
        v: 4572760506128099233
      - t: 9
        v: 4572414629676717179
      - t: 255
        v: 40
      - t: 255
        v: 37
      - t: 3
        v: 0
      special: 
      uniObj: {fileID: 0}
    - refId: 39
      type: System.Guid, mscorlib, Version=4.0.0.0, Culture=neutral, PublicKeyToken=b77a5c561934e089
      altType: 
      fields: []
      values: []
      special: fe2d9edc-ea83-4e04-bfce-5c86318be001
      uniObj: {fileID: 0}
    - refId: 40
      type: UnityEngine.Vector2, UnityEngine.CoreModule, Version=0.0.0.0, Culture=neutral,
        PublicKeyToken=null
      altType: 
      fields:
      - x
      - y
      values:
      - t: 2
        v: 3287540241
      - t: 2
        v: 1136698022
      special: 
      uniObj: {fileID: 0}
    - refId: 41
      type: MapMagic.Nodes.MatrixGenerators.Slope200, MapMagic, Version=0.0.0.0,
        Culture=neutral, PublicKeyToken=null
      altType: MapMagic.Nodes.Placeholders+InletOutletPlaceholder, MapMagic, Version=0.0.0.0,
        Culture=neutral, PublicKeyToken=null
      fields:
      - from
      - to
      - range
      - enabled
      - guid
      - draftTime
      - mainTime
      - guiPosition
      - guiSize
      - guiPreview
      values:
      - t: 2
        v: 1106300109
      - t: 2
        v: 1119092736
      - t: 2
        v: 1092616192
      - t: 3
        v: 1
      - t: 255
        v: 42
      - t: 9
        v: 4595419016573325672
      - t: 9
        v: 4618098468756819385
      - t: 255
        v: 43
      - t: 255
        v: 44
      - t: 3
        v: 0
      special: 
      uniObj: {fileID: 0}
    - refId: 42
      type: System.Guid, mscorlib, Version=4.0.0.0, Culture=neutral, PublicKeyToken=b77a5c561934e089
      altType: 
      fields: []
      values: []
      special: 7bd38bc9-d3f4-4497-90ed-b2100dfab278
      uniObj: {fileID: 0}
    - refId: 43
      type: UnityEngine.Vector2, UnityEngine.CoreModule, Version=0.0.0.0, Culture=neutral,
        PublicKeyToken=null
      altType: 
      fields:
      - x
      - y
      values:
      - t: 2
        v: 3279275045
      - t: 2
        v: 1136856820
      special: 
      uniObj: {fileID: 0}
    - refId: 44
      type: UnityEngine.Vector2, UnityEngine.CoreModule, Version=0.0.0.0, Culture=neutral,
        PublicKeyToken=null
      altType: 
      fields:
      - x
      - y
      values:
      - t: 2
        v: 1124204544
      - t: 2
        v: 1119617024
      special: 
      uniObj: {fileID: 0}
    - refId: 45
      type: MapMagic.Nodes.MatrixGenerators.Cavity200, MapMagic, Version=0.0.0.0,
        Culture=neutral, PublicKeyToken=null
      altType: MapMagic.Nodes.Placeholders+InletOutletPlaceholder, MapMagic, Version=0.0.0.0,
        Culture=neutral, PublicKeyToken=null
      fields:
      - type
      - intensity
      - spread
      - enabled
      - guid
      - draftTime
      - mainTime
      - guiPosition
      - guiSize
      - guiPreview
      values:
      - t: 255
        v: 46
      - t: 2
        v: 1092616192
      - t: 2
        v: 1084227584
      - t: 3
        v: 1
      - t: 255
        v: 47
      - t: 9
        v: 4597342954334138348
      - t: 9
        v: 4624676764142528784
      - t: 255
        v: 48
      - t: 255
        v: 44
      - t: 3
        v: 0
      special: 
      uniObj: {fileID: 0}
    - refId: 46
      type: MapMagic.Nodes.MatrixGenerators.Cavity200+CavityType, MapMagic, Version=0.0.0.0,
        Culture=neutral, PublicKeyToken=null
      altType: 
      fields:
      - value__
      values:
      - t: 1
        v: 0
      special: 
      uniObj: {fileID: 0}
    - refId: 47
      type: System.Guid, mscorlib, Version=4.0.0.0, Culture=neutral, PublicKeyToken=b77a5c561934e089
      altType: 
      fields: []
      values: []
      special: 0b859702-207d-441c-af70-d3187b08f39f
      uniObj: {fileID: 0}
    - refId: 48
      type: UnityEngine.Vector2, UnityEngine.CoreModule, Version=0.0.0.0, Culture=neutral,
        PublicKeyToken=null
      altType: 
      fields:
      - x
      - y
      values:
      - t: 2
        v: 3278423077
      - t: 2
        v: 1131683307
      special: 
      uniObj: {fileID: 0}
    - refId: 49
      type: MapMagic.Nodes.MatrixPortalEnter, MapMagic, Version=0.0.0.0, Culture=neutral,
        PublicKeyToken=null
      altType: MapMagic.Nodes.Placeholders+InletOutletPlaceholder, MapMagic, Version=0.0.0.0,
        Culture=neutral, PublicKeyToken=null
      fields:
      - name
      - enabled
      - guid
      - draftTime
      - mainTime
      - guiPosition
      - guiSize
      - guiPreview
      values:
      - t: 255
        v: 50
      - t: 3
        v: 1
      - t: 255
        v: 51
      - t: 9
        v: 0
      - t: 9
        v: 0
      - t: 255
        v: 52
      - t: 255
        v: 37
      - t: 3
        v: 0
      special: 
      uniObj: {fileID: 0}
    - refId: 50
      type: System.String, mscorlib, Version=4.0.0.0, Culture=neutral, PublicKeyToken=b77a5c561934e089
      altType: 
      fields: []
      values: []
      special: Grass
      uniObj: {fileID: 0}
    - refId: 51
      type: System.Guid, mscorlib, Version=4.0.0.0, Culture=neutral, PublicKeyToken=b77a5c561934e089
      altType: 
      fields: []
      values: []
      special: f843fc0a-8de3-4ab5-85ec-288d4397630c
      uniObj: {fileID: 0}
    - refId: 52
      type: UnityEngine.Vector2, UnityEngine.CoreModule, Version=0.0.0.0, Culture=neutral,
        PublicKeyToken=null
      altType: 
      fields:
      - x
      - y
      values:
      - t: 2
        v: 1141905092
      - t: 2
        v: 1138560136
      special: 
      uniObj: {fileID: 0}
    - refId: 53
      type: MapMagic.Nodes.MatrixGenerators.GrassOutput200, MapMagic, Version=0.0.0.0,
        Culture=neutral, PublicKeyToken=null
      altType: MapMagic.Nodes.Placeholders+InletOutletPlaceholder, MapMagic, Version=0.0.0.0,
        Culture=neutral, PublicKeyToken=null
      fields:
      - outputLevel
      - density
      - prototype
      - renderMode
      - enabled
      - guid
      - draftTime
      - mainTime
      - guiPosition
      - guiSize
      - guiPreview
      values:
      - t: 255
        v: 54
      - t: 2
        v: 1073741824
      - t: 255
        v: 55
      - t: 255
        v: 59
      - t: 3
        v: 1
      - t: 255
        v: 60
      - t: 9
        v: 0
      - t: 9
        v: 4578474673335306918
      - t: 255
        v: 61
      - t: 255
        v: 62
      - t: 3
        v: 0
      special: 
      uniObj: {fileID: 0}
    - refId: 54
      type: MapMagic.Nodes.OutputLevel, MapMagic, Version=0.0.0.0, Culture=neutral,
        PublicKeyToken=null
      altType: 
      fields:
      - value__
      values:
      - t: 1
        v: 2
      special: 
      uniObj: {fileID: 0}
    - refId: 55
      type: UnityEngine.DetailPrototype, UnityEngine.TerrainModule, Version=0.0.0.0,
        Culture=neutral, PublicKeyToken=null
      altType: 
      fields:
      - m_Prototype
      - m_PrototypeTexture
      - m_HealthyColor
      - m_DryColor
      - m_MinWidth
      - m_MaxWidth
      - m_MinHeight
      - m_MaxHeight
      - m_NoiseSpread
      - m_BendFactor
      - m_RenderMode
      - m_UsePrototypeMesh
      values:
      - t: 255
        v: 4294967295
      - t: 255
        v: 56
      - t: 255
        v: 57
      - t: 255
        v: 58
      - t: 2
        v: 1073741824
      - t: 2
        v: 1077936128
      - t: 2
        v: 1065353216
      - t: 2
        v: 1073741824
      - t: 2
        v: 1045220557
      - t: 2
        v: 1036831949
      - t: 1
        v: 2
      - t: 1
        v: 0
      special: 
      uniObj: {fileID: 0}
    - refId: 56
      type: UnityEngine.Texture2D, UnityEngine.CoreModule, Version=0.0.0.0, Culture=neutral,
        PublicKeyToken=null
      altType: 
      fields: []
      values: []
      special: 
      uniObj: {fileID: 2800000, guid: 9c4bf1721ff718f4f9b291dae6fe805c, type: 3}
    - refId: 57
      type: UnityEngine.Color, UnityEngine.CoreModule, Version=0.0.0.0, Culture=neutral,
        PublicKeyToken=null
      altType: 
      fields:
      - r
      - g
      - b
      - a
      values:
      - t: 2
        v: 1060691350
      - t: 2
        v: 1065353216
      - t: 2
        v: 1060050982
      - t: 2
        v: 1065353216
      special: 
      uniObj: {fileID: 0}
    - refId: 58
      type: UnityEngine.Color, UnityEngine.CoreModule, Version=0.0.0.0, Culture=neutral,
        PublicKeyToken=null
      altType: 
      fields:
      - r
      - g
      - b
      - a
      values:
      - t: 2
        v: 1065353216
      - t: 2
        v: 1065120224
      - t: 2
        v: 1062899944
      - t: 2
        v: 1065353216
      special: 
      uniObj: {fileID: 0}
    - refId: 59
      type: MapMagic.Nodes.MatrixGenerators.GrassOutput200+GrassRenderMode, MapMagic,
        Version=0.0.0.0, Culture=neutral, PublicKeyToken=null
      altType: 
      fields:
      - value__
      values:
      - t: 1
        v: 0
      special: 
      uniObj: {fileID: 0}
    - refId: 60
      type: System.Guid, mscorlib, Version=4.0.0.0, Culture=neutral, PublicKeyToken=b77a5c561934e089
      altType: 
      fields: []
      values: []
      special: daeb9b11-a057-4aa8-9d9d-a70b61fa1d75
      uniObj: {fileID: 0}
    - refId: 61
      type: UnityEngine.Vector2, UnityEngine.CoreModule, Version=0.0.0.0, Culture=neutral,
        PublicKeyToken=null
      altType: 
      fields:
      - x
      - y
      values:
      - t: 2
        v: 1142103319
      - t: 2
        v: 1127924774
      special: 
      uniObj: {fileID: 0}
    - refId: 62
      type: UnityEngine.Vector2, UnityEngine.CoreModule, Version=0.0.0.0, Culture=neutral,
        PublicKeyToken=null
      altType: 
      fields:
      - x
      - y
      values:
      - t: 2
        v: 1124204544
      - t: 2
        v: 1130627072
      special: 
      uniObj: {fileID: 0}
    - refId: 63
      type: MapMagic.Nodes.MatrixGenerators.Contrast200, MapMagic, Version=0.0.0.0,
        Culture=neutral, PublicKeyToken=null
      altType: MapMagic.Nodes.Placeholders+InletOutletPlaceholder, MapMagic, Version=0.0.0.0,
        Culture=neutral, PublicKeyToken=null
      fields:
      - brightness
      - contrast
      - enabled
      - guid
      - draftTime
      - mainTime
      - guiPosition
      - guiSize
      - guiPreview
      values:
      - t: 2
        v: 0
      - t: 2
        v: 1148846080
      - t: 3
        v: 1
      - t: 255
        v: 64
      - t: 9
        v: 4580211261351620982
      - t: 9
        v: 4607324282188279579
      - t: 255
        v: 65
      - t: 255
        v: 66
      - t: 3
        v: 1
      special: 
      uniObj: {fileID: 0}
    - refId: 64
      type: System.Guid, mscorlib, Version=4.0.0.0, Culture=neutral, PublicKeyToken=b77a5c561934e089
      altType: 
      fields: []
      values: []
      special: cbb6725d-194c-47b1-9c5e-3442ac2c0bdd
      uniObj: {fileID: 0}
    - refId: 65
      type: UnityEngine.Vector2, UnityEngine.CoreModule, Version=0.0.0.0, Culture=neutral,
        PublicKeyToken=null
      altType: 
      fields:
      - x
      - y
      values:
      - t: 2
        v: 1134458277
      - t: 2
        v: 1132849534
      special: 
      uniObj: {fileID: 0}
    - refId: 66
      type: UnityEngine.Vector2, UnityEngine.CoreModule, Version=0.0.0.0, Culture=neutral,
        PublicKeyToken=null
      altType: 
      fields:
      - x
      - y
      values:
      - t: 2
        v: 1124204544
      - t: 2
        v: 1129054208
      special: 
      uniObj: {fileID: 0}
    - refId: 67
      type: MapMagic.Nodes.MatrixGenerators.CTSOutput200, Assembly-CSharp, Version=0.0.0.0,
        Culture=neutral, PublicKeyToken=null
      altType: MapMagic.Nodes.Placeholders+InletOutletPlaceholder, MapMagic, Version=0.0.0.0,
        Culture=neutral, PublicKeyToken=null
      fields:
      - guiTextureNames
      - outputLevel
      - layers
      - enabled
      - guid
      - draftTime
      - mainTime
      - guiPosition
      - guiSize
      - guiPreview
      values:
      - t: 255
        v: 4294967295
      - t: 255
        v: 14
      - t: 255
        v: 68
      - t: 3
        v: 1
      - t: 255
        v: 73
      - t: 9
        v: 4600985465712755606
      - t: 9
        v: 4628551999031890412
      - t: 255
        v: 74
      - t: 255
        v: 75
      - t: 3
        v: 0
      special: 
      uniObj: {fileID: 0}
    - refId: 68
      type: MapMagic.Nodes.MatrixGenerators.CTSOutput200+CTSLayer[], Assembly-CSharp,
        Version=0.0.0.0, Culture=neutral, PublicKeyToken=null
      altType: MapMagic.Nodes.Placeholders+InletOutletPlaceholder[], MapMagic, Version=0.0.0.0,
        Culture=neutral, PublicKeyToken=null
      fields: []
      values:
      - t: 255
        v: 69
      - t: 255
        v: 71
      - t: 255
        v: 72
      special: 
      uniObj: {fileID: 0}
    - refId: 69
      type: MapMagic.Nodes.MatrixGenerators.CTSOutput200+CTSLayer, Assembly-CSharp,
        Version=0.0.0.0, Culture=neutral, PublicKeyToken=null
      altType: MapMagic.Nodes.Placeholders+InletOutletPlaceholder, MapMagic, Version=0.0.0.0,
        Culture=neutral, PublicKeyToken=null
      fields:
      - name
      - channelNum
      - gen
      values:
      - t: 255
        v: 70
      - t: 1
        v: 2
      - t: 255
        v: 67
      special: 
      uniObj: {fileID: 0}
    - refId: 70
      type: System.String, mscorlib, Version=4.0.0.0, Culture=neutral, PublicKeyToken=b77a5c561934e089
      altType: 
      fields: []
      values: []
      special: Layer
      uniObj: {fileID: 0}
    - refId: 71
      type: MapMagic.Nodes.MatrixGenerators.CTSOutput200+CTSLayer, Assembly-CSharp,
        Version=0.0.0.0, Culture=neutral, PublicKeyToken=null
      altType: MapMagic.Nodes.Placeholders+InletOutletPlaceholder, MapMagic, Version=0.0.0.0,
        Culture=neutral, PublicKeyToken=null
      fields:
      - name
      - channelNum
      - gen
      values:
      - t: 255
        v: 70
      - t: 1
        v: 1
      - t: 255
        v: 67
      special: 
      uniObj: {fileID: 0}
    - refId: 72
      type: MapMagic.Nodes.MatrixGenerators.CTSOutput200+CTSLayer, Assembly-CSharp,
        Version=0.0.0.0, Culture=neutral, PublicKeyToken=null
      altType: MapMagic.Nodes.Placeholders+InletOutletPlaceholder, MapMagic, Version=0.0.0.0,
        Culture=neutral, PublicKeyToken=null
      fields:
      - name
      - channelNum
      - gen
      values:
      - t: 255
        v: 70
      - t: 1
        v: 0
      - t: 255
        v: 67
      special: 
      uniObj: {fileID: 0}
    - refId: 73
      type: System.Guid, mscorlib, Version=4.0.0.0, Culture=neutral, PublicKeyToken=b77a5c561934e089
      altType: 
      fields: []
      values: []
      special: 5d491b6b-29fe-44da-b37d-cf1e6b3ea188
      uniObj: {fileID: 0}
    - refId: 74
      type: UnityEngine.Vector2, UnityEngine.CoreModule, Version=0.0.0.0, Culture=neutral,
        PublicKeyToken=null
      altType: 
      fields:
      - x
      - y
      values:
      - t: 2
        v: 1112688933
      - t: 2
        v: 1131713097
      special: 
      uniObj: {fileID: 0}
    - refId: 75
      type: UnityEngine.Vector2, UnityEngine.CoreModule, Version=0.0.0.0, Culture=neutral,
        PublicKeyToken=null
      altType: 
      fields:
      - x
      - y
      values:
      - t: 2
        v: 1124204544
      - t: 2
        v: 1126825984
      special: 
      uniObj: {fileID: 0}
    - refId: 76
      type: MapMagic.Nodes.IInlet`1[[System.Object, mscorlib, Version=4.0.0.0, Culture=neutral,
        PublicKeyToken=b77a5c561934e089]][], MapMagic, Version=0.0.0.0, Culture=neutral,
        PublicKeyToken=null
      altType: 
      fields: []
      values:
      - t: 255
        v: 9
      - t: 255
        v: 13
      - t: 255
        v: 18
      - t: 255
        v: 33
      - t: 255
        v: 41
      - t: 255
        v: 45
      - t: 255
        v: 49
      - t: 255
        v: 53
      - t: 255
        v: 72
      - t: 255
        v: 71
      - t: 255
        v: 63
      special: 
      uniObj: {fileID: 0}
    - refId: 77
      type: MapMagic.Nodes.IOutlet`1[[System.Object, mscorlib, Version=4.0.0.0, Culture=neutral,
        PublicKeyToken=b77a5c561934e089]][], MapMagic, Version=0.0.0.0, Culture=neutral,
        PublicKeyToken=null
      altType: 
      fields: []
      values:
      - t: 255
        v: 18
      - t: 255
        v: 9
      - t: 255
        v: 3
      - t: 255
        v: 9
      - t: 255
        v: 38
      - t: 255
        v: 38
      - t: 255
        v: 63
      - t: 255
        v: 63
      - t: 255
        v: 45
      - t: 255
        v: 41
      - t: 255
        v: 69
      special: 
      uniObj: {fileID: 0}
    - refId: 78
      type: MapMagic.Nodes.Group[], MapMagic, Version=0.0.0.0, Culture=neutral, PublicKeyToken=null
      altType: 
      fields: []
      values:
      - t: 255
        v: 79
      - t: 255
        v: 84
      special: 
      uniObj: {fileID: 0}
    - refId: 79
      type: MapMagic.Nodes.Group, MapMagic, Version=0.0.0.0, Culture=neutral, PublicKeyToken=null
      altType: 
      fields:
      - name
      - comment
      - color
      - guiPos
      - guiSize
      values:
      - t: 255
        v: 34
      - t: 255
        v: 80
      - t: 255
        v: 81
      - t: 255
        v: 82
      - t: 255
        v: 83
      special: 
      uniObj: {fileID: 0}
    - refId: 80
      type: System.String, mscorlib, Version=4.0.0.0, Culture=neutral, PublicKeyToken=b77a5c561934e089
      altType: 
      fields: []
      values: []
      special: Drag in generators to group them
      uniObj: {fileID: 0}
    - refId: 81
      type: UnityEngine.Color, UnityEngine.CoreModule, Version=0.0.0.0, Culture=neutral,
        PublicKeyToken=null
      altType: 
      fields:
      - r
      - g
      - b
      - a
      values:
      - t: 2
        v: 1064697856
      - t: 2
        v: 1061814272
      - t: 2
        v: 1061748736
      - t: 2
        v: 1065353216
      special: 
      uniObj: {fileID: 0}
    - refId: 82
      type: UnityEngine.Vector2, UnityEngine.CoreModule, Version=0.0.0.0, Culture=neutral,
        PublicKeyToken=null
      altType: 
      fields:
      - x
      - y
      values:
      - t: 2
        v: 3287510455
      - t: 2
        v: 3274169198
      special: 
      uniObj: {fileID: 0}
    - refId: 83
      type: UnityEngine.Vector2, UnityEngine.CoreModule, Version=0.0.0.0, Culture=neutral,
        PublicKeyToken=null
      altType: 
      fields:
      - x
      - y
      values:
      - t: 2
        v: 1145260324
      - t: 2
        v: 1133192338
      special: 
      uniObj: {fileID: 0}
    - refId: 84
      type: MapMagic.Nodes.Group, MapMagic, Version=0.0.0.0, Culture=neutral, PublicKeyToken=null
      altType: 
      fields:
      - name
      - comment
      - color
      - guiPos
      - guiSize
      values:
      - t: 255
        v: 85
      - t: 255
        v: 80
      - t: 255
        v: 86
      - t: 255
        v: 87
      - t: 255
        v: 88
      special: 
      uniObj: {fileID: 0}
    - refId: 85
      type: System.String, mscorlib, Version=4.0.0.0, Culture=neutral, PublicKeyToken=b77a5c561934e089
      altType: 
      fields: []
      values: []
      special: Textures
      uniObj: {fileID: 0}
    - refId: 86
      type: UnityEngine.Color, UnityEngine.CoreModule, Version=0.0.0.0, Culture=neutral,
        PublicKeyToken=null
      altType: 
      fields:
      - r
      - g
      - b
      - a
      values:
      - t: 2
        v: 1058734080
      - t: 2
        v: 1058471936
      - t: 2
        v: 1048576000
      - t: 2
        v: 1065353216
      special: 
      uniObj: {fileID: 0}
    - refId: 87
      type: UnityEngine.Vector2, UnityEngine.CoreModule, Version=0.0.0.0, Culture=neutral,
        PublicKeyToken=null
      altType: 
      fields:
      - x
      - y
      values:
      - t: 2
        v: 3288195601
      - t: 2
        v: 1125326315
      special: 
      uniObj: {fileID: 0}
    - refId: 88
      type: UnityEngine.Vector2, UnityEngine.CoreModule, Version=0.0.0.0, Culture=neutral,
        PublicKeyToken=null
      altType: 
      fields:
      - x
      - y
      values:
      - t: 2
        v: 1151491172
      - t: 2
        v: 1136175786
      special: 
      uniObj: {fileID: 0}
    - refId: 89
      type: MapMagic.Nodes.Exposed, MapMagic, Version=0.0.0.0, Culture=neutral, PublicKeyToken=null
      altType: 
      fields:
      - entries
      values:
      - t: 255
        v: 4294967295
      special: 
      uniObj: {fileID: 0}
